<?xml version="1.0" encoding="utf-8"?>
<!-- Generator: Adobe Illustrator 16.0.0, SVG Export Plug-In . SVG Version: 6.00 Build 0)  -->
<!DOCTYPE svg PUBLIC "-//W3C//DTD SVG 1.1//EN" "http://www.w3.org/Graphics/SVG/1.1/DTD/svg11.dtd">
<svg version="1.1" id="Layer_1" xmlns="http://www.w3.org/2000/svg" xmlns:xlink="http://www.w3.org/1999/xlink" x="0px" y="0px"
	 width="43px" height="14px" viewBox="0 0 43 14" enable-background="new 0 0 43 14" xml:space="preserve">
<g>
	<path fill="#0033A0" d="M12.1,0.495L8.772,9.467L8.418,7.644C7.59,5.409,5.796,3.063,3.706,2.113L6.75,13.635l3.599-0.002
		l5.351-13.138H12.1L12.1,0.495z"/>
	<polygon fill="#0033A0" points="14.952,13.647 17.079,0.482 20.479,0.482 18.35,13.647 14.952,13.647 	"/>
	<path fill="#0033A0" d="M30.682,0.807c-0.672-0.266-1.731-0.554-3.046-0.554c-3.362,0-5.726,1.788-5.746,4.344
		c-0.021,1.894,1.689,2.95,2.976,3.579c1.327,0.644,1.771,1.057,1.767,1.633c-0.013,0.883-1.062,1.283-2.036,1.283
		c-1.359,0-2.084-0.197-3.197-0.688l-0.441-0.209l-0.477,2.945c0.796,0.367,2.264,0.686,3.79,0.701c3.568,0,5.89-1.768,5.918-4.496
		c0.015-1.501-0.894-2.639-2.856-3.578c-1.186-0.61-1.918-1.014-1.907-1.633c0.001-0.546,0.614-1.131,1.947-1.131
		c1.113-0.019,1.914,0.237,2.544,0.506l0.303,0.151L30.682,0.807L30.682,0.807z"/>
	<path fill="#0033A0" d="M39.4,0.496h-2.627c-0.813,0-1.424,0.232-1.783,1.093l-5.046,12.063h3.57c0,0,0.584-1.623,0.716-1.979
		c0.389,0,3.857,0.008,4.352,0.008c0.105,0.459,0.414,1.972,0.414,1.972h3.156L39.4,0.496L39.4,0.496z M35.208,8.979
		c0.282-0.756,1.354-3.68,1.354-3.68c-0.021,0.036,0.278-0.761,0.452-1.254l0.227,1.135c0,0,0.653,3.143,0.789,3.8
		C37.501,8.979,35.871,8.979,35.208,8.979L35.208,8.979z"/>
	<path fill="#FF9E16" d="M5.687,0.488H0.204L0.172,0.714c4.263,1.09,7.075,3.768,8.246,6.934L7.227,1.597
		C7.021,0.765,6.425,0.518,5.687,0.488L5.687,0.488z"/>
</g>
</svg>
